Chapter 7 Logistic Regression | Stat 455: Advanced Statistical Modeling Notes
…
EdCuts = cut(Wisconsin$College,
           breaks=c(10,20,30,40,50,60))
PopCuts = cut(Wisconsin$TotalVotes,
           breaks=c(seq(from=0, to =100000, by=10000), 500000))
WisconsinCuts <- data.frame(EdCuts, PopCuts, Wisconsin) 
WisconsinGrps <- WisconsinCuts %>% group_by(EdCuts, PopCuts) %>% 
  summarize(NCounties = n(),
            phat = sum(Dvotes)/sum(TotalVotes),
            mean_n = mean(TotalVotes),
            Theoretical_Variance = mean_n*phat*(1-phat),
            Obs_Var = var(Dvotes)) %>%
  arrange(desc(NCounties))
WisconsinGrps                                                                 

## # A tibble: 24 × 7
## # Groups:   EdCuts [5]
##    EdCuts  PopCuts       NCounties  phat  mean_n Theoretical_Variance   Obs_Var
##    <fct>   <fct>             <int> <dbl>   <dbl>                <dbl>     <dbl>
##  1 (10,20] (0,1e+04]            12 0.394   6359.                1518.  1233845.
##  2 (10,20] (1e+04,2e+04]        12 0.351  12366.                2817.  1137954.
##  3 (20,30] (2e+04,3e+04]         7 0.448  23677                 5855.  1662284 
##  4 (10,20] (2e+04,3e+04]         6 0.338  23962.                5359.  1454543.
##  5 (20,30] (1e+04,2e+04]         5 0.453  13037.                3231.  3059893.
##  6 (20,30] (3e+04,4e+04]         4 0.451  33628.                8325.  6968112.
##  7 (20,30] (1e+05,5e+05]         3 0.464 117357.               29187. 93383717.
##  8 (10,20] (4e+04,5e+04]         2 0.362  45874.               10589.   106722 
##  9 (20,30] (4e+04,5e+04]         2 0.413  43892.               10642.  6262260.
## 10 (20,30] (5e+04,6e+04]         2 0.384  56491                13362.  2422200.
## # ℹ 14 more rows
…
